{
    "current_page": 2,
    "data": [
        {
            "id": 3,
            "first_name": "Andrew",
            "last_name": "Montgomery",
            "email": "retoh@example.com",
            "created_at": null,
            "updated_at": null,
            "deleted_at": null,
            "role_id": 3,
            "date_of_birth": "2001-06-30",
            "phone": "89162002943",
            "position": "intern",
            "starts_on": "2022-04-26 00:00:00",
            "hr_id": 2,
            "manager_id": 2,
            "lead_id": 1,
            "avatar_id": 2,
            "company_id": 1
        },
        {
            "id": 6,
            "first_name": "Andrey",
            "last_name": "Danilov",
            "email": "andr@example.com",
            "created_at": null,
            "updated_at": null,
            "deleted_at": null,
            "role_id": 4,
            "date_of_birth": "2001-06-30",
            "phone": "89182002900",
            "position": "hr",
            "starts_on": "2022-04-26 00:00:00",
            "hr_id": 2,
            "manager_id": 2,
            "lead_id": 1,
            "avatar_id": 2,
            "company_id": 1
        }
    ],
    "first_page_url": "http://localhost/api/users?page=1",
    "from": 3,
    "last_page": 3,
    "last_page_url": "http://localhost/api/users?page=3",
    "links": [
        {
            "url": "http://localhost/api/users?page=1",
            "label": "&laquo; Previous",
            "active": false
        },
        {
            "url": "http://localhost/api/users?page=1",
            "label": "1",
            "active": false
        },
        {
            "url": "http://localhost/api/users?page=2",
            "label": "2",
            "active": true
        },
        {
            "url": "http://localhost/api/users?page=3",
            "label": "3",
            "active": false
        },
        {
            "url": "http://localhost/api/users?page=3",
            "label": "Next &raquo;",
            "active": false
        }
    ],
    "next_page_url": "http://localhost/api/users?page=3",
    "path": "http://localhost/api/users",
    "per_page": 2,
    "prev_page_url": "http://localhost/api/users?page=1",
    "to": 4,
    "total": 6
}
